{
  "data": {
    "startZones": [
      {
        "img": "/img/Activity/UV/Activity1/image_gama.jpeg",
        "id": "1"
      },
      {
        "img": "/img/Activity/UV/Activity1/image_infrarouge.jpeg",
        "id": "2"
      },
      {
        "img": "/img/Activity/UV/Activity1/image_microonde.jpeg",
        "id": "3"
      }
    ],
    "endZones": [
      {
        "img": "/img/Activity/UV/Activity1/image_radioelectrique.jpeg",
        "id": "a"
      },
      {
        "img": "/img/Activity/UV/Activity1/image_ultraviolet.jpeg",
        "id": "b"
      }
    ]
  }
}
